…
We can use the combination of `group_by` and `top_n` function in `dplyr` to get three most popular names from each year group. We also can modified the grouping variable (e.g. using gender or combination of year and gender).

```r
babynames %>%
  group_by(year) %>%
  top_n(3, n) %>%
  arrange(year, desc(n))
```

```r
## # A tibble: 408 x 5
## # Groups:   year [136]
##     year   sex    name     n       prop
##    <dbl> <chr>   <chr> <int>      <dbl>
##  1  1880     M    John  9655 0.08154630
##  2  1880     M William  9531 0.08049899
##  3  1880     F    Mary  7065 0.07238433
##  4  1881     M    John  8769 0.08098299
##  5  1881     M William  8524 0.07872038
##  6  1881     F    Mary  6919 0.06999140
##  7  1882     M    John  9557 0.07831617
##  8  1882     M William  9298 0.07619375
##  9  1882     F    Mary  8148 0.07042594
## 10  1883     M    John  8894 0.07907324
## # ... with 398 more rows
```
…
