…
Tanggal 3 September 2017 yang lalu, Raisa. Selamat jalan Raisa! Selamat menempuh hidup baru!

Di episode DataKepo kali ini, gue bakalan melakukan sedikit analisis teks mengenai lagu-lagu Raisa. Data berasal dari liriklagu.com (sekarang sudah berganti jadi liriklaguindonesia.net).

```r
## # A tibble: 792 x 5
##              title     p    pl     l
##              <chr> <int> <int> <int>
##  1 Anganku Anganmu     1     1     1
##  2 Anganku Anganmu     1     2     2
##  3 Anganku Anganmu     1     3     3
##  4 Anganku Anganmu     2     1     4
##  5 Anganku Anganmu     2     2     5
##  6 Anganku Anganmu     2     3     6
##  7 Anganku Anganmu     3     1     7
##  8 Anganku Anganmu     3     2     8
##  9 Anganku Anganmu     4     1     9
## 10 Anganku Anganmu     4     2    10
## # ... with 782 more rows, and 1 more variables: txt <chr>
```
…
