…
Di episode DataGue kali ini, gue akan mengeksplorasi data rute Transjakarta, moda transportasi bus di Jakarta dan sekitarnya. Dari tahun 2017, gue sudah penasaran mengenai data transportasi di Indonesia. Gue pun memulai pencarian data di situs [Jakarta Smart City](http://smartcity.jakarta.go.id/) dan [data.jakarta.go.id](http://data.jakarta.go.id/), sebuah situs data terbuka mengenai Jakarta. Sayangnya, data yang diberikan sudah kadaluarsa, tidak lengkap dan tidak sesuai harapan gue.

Barulah akhir-akhir ini, gue menemukan data Transjakarta sesuai harapan gue berdasarkan rekomendasi dari teman. Gue pun mendapatkan data rute Transjakarta dari laman Trafi di [sini](https://www.trafi.com/id/jakarta/transjakarta) per tanggal 25 Juni 2018. Gue pun perlu membersihkan data tersebut dan sekarang sudah bisa diakses di *[nusantr](https://github.com/rasyidstat/nusantr)* versi >=0.3.3 yang dapat dipasang dengan mudah via R melalui `devtools::instal_github("rasyidstat/nusantr")`.

Ada dua data *dataset* Transjakarta di *nusantr* yaitu:

* `transjakarta` data halte Transjakarta beserta posisi *longitude* dan *latitude*

```
transjakarta
#> # A tibble: 1,555 x 6
#>   halte_id         halte_name  latitude longitude corridor_cnt schedule_id
#>   <chr>            <chr>          <dbl>     <dbl>        <int> <list>     
#> 1 idjkb_1-10 Sari… Sarinah        -6.19      107.           10 <chr [10]> 
#> 2 idjkb_1-11 Bank… Bank Indon…    -6.18      107.            9 <chr [9]>  
#> 3 idjkb_1-12 Monas Monumen Na…    -6.18      107.           16 <chr [16]> 
#> 4 idjkb_1-13 Harm… Harmoni        -6.17      107.           18 <chr [18]> 
#> 5 idjkb_1-14 Sawa… Sawah Besar    -6.16      107.            5 <chr [5]>  
#> # ... with 1,550 more rows
```

* `transjakarta_route` data trayek Transjakarta beserta rute dan geometri dalam bentuk *sf data frame*

```
transjakarta_route
#> Simple feature collection with 482 features and 11 fields
#> geometry type:  LINESTRING
#> dimension:      XY
#> bbox:           xmin: 106.6 ymin: -6.396 xmax: 107 ymax: -6.091
#> epsg (SRID):    4326
#> proj4string:    +proj=longlat +datum=WGS84 +no_defs
#> # A tibble: 482 x 12
#>   transport_id schedule_id corridor_id corridor_name corridor_color
#>   <chr>        <chr>       <chr>       <chr>         <chr>         
#> 1 idjkb_brt    idjkb_1     1           Blok M - Kota D02027        
#> 2 idjkb_brt    idjkb_1     1           Blok M - Kota D02027        
#> 3 idjkb_brt    idjkb_1     1           Blok M - Kota D02027        
#> 4 idjkb_brt    idjkb_1     1           Blok M - Kota D02027        
#> 5 idjkb_brt    idjkb_1     1           Blok M - Kota D02027        
#> # ... with 477 more rows, and 7 more variables: route_id <chr>,
#> #   route_name <chr>, direction <int>, validity <chr>, is_main <lgl>,
#> #   is_main_reverse <lgl>, geometry <LINESTRING [°]>
```
…
